Untitled
…
Ahora que tenemos un clasificador k-nearest neghbor, podemos usarlo
para predecir las etiquetas de clase para nuestro conjunto de prueba.
Usamos bind_cols para agregar la columna de predicciones a
los datos de prueba originales, creando el marco de datos
cancer_test_predictions. La variable Class
contiene los diagnsticos verdaderos, mientras que
.pred_class contiene los diagnsticos predichos del
clasificador.

cancer_test_predictions <- predict(knn_fit, cancer_test) |>
  bind_cols(cancer_test)

cancer_test_predictions

## # A tibble: 143 x 13
##    .pred_class       id class radius texture perimeter  area smoothness
##    <fct>          <dbl> <fct>  <dbl>   <dbl>     <dbl> <dbl>      <dbl>
##  1 M           84501001 M       12.5   1.60       84.0  476.     0.119 
##  2 B             846381 M       15.8   1.08      104.   783.     0.0840
##  3 M           84799002 M       14.5   1.03       96.7  659.     0.114 
##  4 M             849014 M       19.8   1.02      130   1260      0.0983
##  5 M             852763 M       14.6   0.983      97.4  645.     0.105 
##  6 M             853401 M       18.6   1.47      125.  1088      0.106 
##  7 B             854253 M       16.7   0.920     110.   870.     0.0961
##  8 B             854941 B       13.0   2.34       82.6  524.     0.0898
##  9 M             855138 M       13.5   0.591      88.4  559.     0.102 
## 10 B             855167 M       13.4   0.826      86.2  563      0.0816
## # ... with 133 more rows, and 5 more variables: compactness <dbl>,
## #   concavity <dbl>, `concave points` <dbl>, symmetry <dbl>,
## #   fractal_dimension <dbl>
…
